
{
"Level": 
    {
    "tiles": 
        {
        "133":  [  2, 19],
        "132":  [  2, 18],
        "131":  [  5, 19],
        "130":  [  4, 19],
        "137":  [  0, 21],
        "136":  [  0, 20],
        "135":  [  7, 19],
        "134":  [  6, 19],
        "139":  [  1, 21],
        "138":  [  0, 22],
        "24":  [  2,  7],
        "25":  [  0,  8],
        "26":  [  1,  8],
        "27":  [  2,  8],
        "20":  [  1,  6],
        "21":  [  2,  6],
        "22":  [  0,  7],
        "23":  [  1,  7],
        "28":  [  0,  9],
        "29":  [  1,  9],
        "4":  [  0,  1],
        "8":  [  1,  2],
        "120":  [  3, 16],
        "121":  [  4, 16],
        "122":  [  5, 16],
        "123":  [  3, 17],
        "124":  [  4, 17],
        "125":  [  5, 17],
        "126":  [  3, 18],
        "127":  [  4, 18],
        "128":  [  5, 18],
        "129":  [  3, 19],
        "59":  [  3, 11],
        "58":  [  5, 10],
        "55":  [  5,  9],
        "54":  [  4,  9],
        "57":  [  4, 10],
        "56":  [  3, 10],
        "51":  [  4,  8],
        "50":  [  3,  8],
        "53":  [  3,  9],
        "52":  [  5,  8],
        "115":  [  1, 19],
        "114":  [  0, 19],
        "88":  [  6, 13],
        "89":  [  7, 13],
        "111":  [  2, 17],
        "110":  [  1, 17],
        "113":  [  1, 18],
        "112":  [  0, 18],
        "82":  [  6, 11],
        "83":  [  7, 11],
        "80":  [  4, 14],
        "81":  [  8, 10],
        "119":  [  5, 15],
        "118":  [  4, 15],
        "84":  [  8, 11],
        "85":  [  6, 12],
        "3":  [  2,  0],
        "7":  [  0,  2],
        "108":  [  2, 16],
        "109":  [  0, 17],
        "102":  [  8, 17],
        "103":  [  6, 18],
        "100":  [  6, 17],
        "101":  [  7, 17],
        "106":  [  0, 16],
        "107":  [  1, 16],
        "104":  [  7, 18],
        "105":  [  8, 18],
        "39":  [  2, 12],
        "38":  [  1, 12],
        "33":  [  2, 10],
        "32":  [  1, 10],
        "31":  [  0, 10],
        "30":  [  2,  9],
        "37":  [  0, 12],
        "36":  [  2, 11],
        "35":  [  1, 11],
        "34":  [  0, 11],
        "60":  [  4, 11],
        "61":  [  5, 11],
        "62":  [  3, 12],
        "63":  [  4, 12],
        "64":  [  5, 12],
        "65":  [  3, 13],
        "66":  [  4, 13],
        "67":  [  5, 13],
        "68":  [  6,  7],
        "69":  [  7,  7],
        "2":  [  1,  0],
        "6":  [  2,  1],
        "99":  [  8, 16],
        "98":  [  7, 16],
        "91":  [  6, 14],
        "90":  [  8, 13],
        "93":  [  8, 14],
        "92":  [  7, 14],
        "95":  [  7, 15],
        "94":  [  6, 15],
        "97":  [  6, 16],
        "96":  [  8, 15],
        "11":  [  1,  3],
        "10":  [  0,  3],
        "13":  [  0,  4],
        "12":  [  2,  3],
        "15":  [  2,  4],
        "14":  [  1,  4],
        "17":  [  1,  5],
        "16":  [  0,  5],
        "19":  [  0,  6],
        "18":  [  2,  5],
        "117":  [  3, 15],
        "116":  [  5, 14],
        "151":  [  9, 19],
        "150":  [ 11, 18],
        "153":  [ 11, 19],
        "152":  [ 10, 19],
        "155":  [ 10, 20],
        "154":  [  9, 20],
        "156":  [ 11, 20],
        "48":  [  4,  7],
        "49":  [  5,  7],
        "46":  [  2, 15],
        "86":  [  7, 12],
        "44":  [  0, 15],
        "45":  [  1, 15],
        "42":  [  2, 13],
        "43":  [  0, 14],
        "40":  [  0, 13],
        "87":  [  8, 12],
        "1":  [  0,  0],
        "5":  [  1,  1],
        "9":  [  2,  2],
        "146":  [  9, 17],
        "147":  [ 10, 17],
        "144":  [  9, 16],
        "145":  [ 10, 16],
        "142":  [  9, 15],
        "143":  [ 10, 15],
        "140":  [  1, 22],
        "141":  [  8, 19],
        "148":  [  9, 18],
        "149":  [ 10, 18],
        "77":  [  6, 10],
        "76":  [  8,  9],
        "75":  [  7,  9],
        "74":  [  6,  9],
        "73":  [  8,  8],
        "72":  [  7,  8],
        "71":  [  6,  8],
        "70":  [  8,  7],
        "79":  [  3, 14],
        "78":  [  7, 10],
        "41":  [  1, 13],
        "47":  [  3,  7]
        },
    "charas":  [""],
    "tileImage": "img/tile.png",
    "tilesAnimated": 
        {
        "20": 
            [[  1,  6],
             [  4,  6],
             [  7,  6],
             [ 10,  6]],
        "21": 
            [[  2,  6],
             [  5,  6],
             [  8,  6],
             [ 11,  6]],
        "43": 
            [[  0, 14],
             [  1, 14],
             [  2, 14],
             [  1, 14]],
        "1": 
            [[  0,  0],
             [  3,  0],
             [  6,  0],
             [  9,  0]],
        "3": 
            [[  2,  0],
             [  5,  0],
             [  8,  0],
             [ 11,  0]],
        "2": 
            [[  1,  0],
             [  4,  0],
             [  7,  0],
             [ 10,  0]],
        "5": 
            [[  1,  1],
             [  4,  1],
             [  7,  1],
             [ 10,  1]],
        "4": 
            [[  0,  1],
             [  3,  1],
             [  6,  1],
             [  9,  1]],
        "7": 
            [[  0,  2],
             [  3,  2],
             [  6,  2],
             [  9,  2]],
        "6": 
            [[  2,  1],
             [  5,  1],
             [  8,  1],
             [ 11,  1]],
        "9": 
            [[  2,  2],
             [  5,  2],
             [  8,  2],
             [ 11,  2]],
        "8": 
            [[  1,  2],
             [  4,  2],
             [  7,  2],
             [ 10,  2]],
        "11": 
            [[  1,  3],
             [  4,  3],
             [  7,  3],
             [ 10,  3]],
        "10": 
            [[  0,  3],
             [  3,  3],
             [  6,  3],
             [  9,  3]],
        "13": 
            [[  0,  4],
             [  3,  4],
             [  6,  4],
             [  9,  4]],
        "12": 
            [[  2,  3],
             [  5,  3],
             [  8,  3],
             [ 11,  3]],
        "15": 
            [[  2,  4],
             [  5,  4],
             [  8,  4],
             [ 11,  4]],
        "14": 
            [[  1,  4],
             [  4,  4],
             [  7,  4],
             [ 10,  4]],
        "17": 
            [[  1,  5],
             [  4,  5],
             [  7,  5],
             [ 10,  5]],
        "16": 
            [[  0,  5],
             [  3,  5],
             [  6,  5],
             [  9,  5]],
        "19": 
            [[  0,  6],
             [  3,  6],
             [  6,  6],
             [  9,  6]],
        "18": 
            [[  2,  5],
             [  5,  5],
             [  8,  5],
             [ 11,  5]]
        },
    "levelName": "beach",
    "layer2": 
        [[155,155,155,155,155,155,155,155,155,155,155,156,152,152,152,153,  0,  0,  0,  0,  0,  0,  0,  0,  0,  0,  0,  0,  0,  0,  0,  0,  0,  0,  0],
         [151,152,  0,  0,  0,  0,151,152,  0,  0,  0,144,154,155,155,156,  0,  0,  0,  0,  0,  0,  0,  0,  0,  0,  0,  0,  0,  0,  0,  0,  0,  0,  0],
         [154,155,156,  0,  0,  0,154,155,156,  0,  0,146,147,  0,  0,  0,  0,  0,  0,  0,  0,  0,  0,  0,  0,  0,  0,  0,  0,  0,  0,  0,  0,  0,  0],
         [146,147,  0,  0,  0,  0,  0,  0,151,152,  0,  0,  0,  0,  0,  0,  0,  0,  0,  0,  0,  0,  0,  0,  0,  0,  0,  0,  0,  0,  0,  0,  0,  0,  0],
         [151,152,  0,  0,  0,  0,  0,  0,154,155,156,  0,  0,  0,  0,  0,  0,  0,  0,  0,  0,  0,  0,  0,  0,  0,  0,  0,  0,  0,  0,  0,  0,  0,  0],
         [154,155,156,  0,  0,  0,  0,  0,  0,  0,  0,  0,  0,  0,  0,  0,  0,  0,  0,  0,  0,  0,  0,  0,  0,  0,  0,  0,  0,  0,  0,  0,  0,  0,  0],
         [144,  0,  0,  0,  0,  0,  0,  0,  0,  0,  0,  0,  0,  0,  0,  0,  0,  0,  0,  0,  0,  0,  0,  0,  0,  0,  0,  0,  0,  0,  0,  0,  0,  0,  0],
         [152,147,  0,  0,  0,  0,  0,  0,  0,  0,  0,  0,  0,  0,  0,  0,  0,  0,  0,  0,  0,  0,  0,  0,  0,  0,  0,  0,  0,  0,  0,  0,  0,  0,  0],
         [147,  0,  0,  0,  0,  0,  0,  0,  0,  0,  0,  0,  0,  0,  0,  0,  0,  0,  0,  0,  0,  0,  0,  0,  0,  0,  0,  0,  0,  0,  0,  0,  0,  0,  0],
         [154,147,  0,  0,  0,  0,  0,  0,  0,  0,  0,  0,  0,  0,  0,  0,  0,  0,  0,  0,  0,  0,  0,  0,  0,  0,  0,  0,  0,  0,  0,  0,  0,  0,  0],
         [  0,  0,  0,  0,  0,  0,  0,  0,  0,  0,  0,  0,  0,  0,  0,  0,  0,  0,  0,  0,  0,  0,  0,  0,  0,  0,  0,  0,  0,  0,  0,  0,  0,  0,  0],
         [  0,  0,  0,  0,  0,  0,  0,  0,  0,  0,  0,  0,  0,  0,  0,  0,  0,  0,  0,  0,  0,  0,  0,  0,  0,  0,  0,  0,  0,  0,  0,  0,  0,  0,  0],
         [145,  0,  0,  0,  0,  0,  0,  0,  0,  0,  0,  0,  0,  0,  0,  0,  0,  0,  0,  0,  0,  0,  0,  0,  0,  0,  0,  0,  0,  0,  0,  0,  0,  0,  0],
         [156,  0,  0,  0,  0,  0,  0,  0,  0,  0,  0,  0,  0,  0,  0,  0,  0,  0,  0,  0,  0,  0,  0,  0,  0,  0,  0,  0,  0,  0,  0,  0,  0,  0,  0],
         [154,155,156,  0,  0,  0,  0,  0,  0,  0,  0,  0,  0,  0,  0,  0,  0,  0,  0,  0,  0,  0,  0,  0,  0,  0,  0,  0,  0,  0,  0,  0,  0,  0,  0],
         [  0,  0,  0,  0,  0,  0,  0,  0,  0,  0,  0,  0,  0,  0,  0,  0,  0,  0,  0,  0,  0,  0,  0,  0,  0,  0,  0,  0,  0,  0,  0,  0,  0,  0,  0],
         [146,147,  0,  0,  0,  0,  0,  0,  0,  0,  0,  0,  0,  0,  0,  0,  0,  0,  0,  0,  0,  0,  0,  0,  0,  0,  0,  0,  0,  0,  0,  0,  0,  0,  0],
         [  0,  0,  0,  0,  0,  0,  0,  0,  0,  0,  0,  0,  0,  0,  0,  0,  0,  0,  0,  0,  0,  0,  0,  0,  0,  0,  0,  0,  0,  0,  0,  0,  0,  0,  0],
         [  0,  0,  0,  0,  0,  0,  0,  0,  0,  0,  0,  0,  0,  0,  0,  0,  0,  0,  0,  0,  0,  0,  0,  0,  0,  0,  0,  0,  0,  0,  0,  0,  0,  0,  0],
         [  0,  0,  0,  0,  0,  0,  0,  0,  0,  0,  0,  0,  0,  0,  0,  0,  0,  0,  0,  0,  0,  0,  0,  0,  0,  0,  0,  0,  0,  0,  0,  0,  0,  0,  0],
         [  0,  0,  0,  0,  0,  0,  0,  0,  0,  0,  0,  0,  0,  0,  0,  0,  0,  0,  0,  0,  0,  0,  0,  0,  0,  0,  0,  0,  0,  0,  0,  0,  0,  0,  0],
         [  0,  0,  0,  0,  0,  0,  0,  0,  0,  0,  0,  0,  0,  0,  0,  0,  0,  0,  0,  0,  0,  0,  0,  0,  0,  0,  0,  0,  0,  0,  0,  0,  0,  0,  0],
         [  0,  0,  0,  0,  0,  0,  0,  0,  0,  0,  0,  0,  0,  0,  0,  0,  0,  0,  0,  0,  0,  0,  0,  0,  0,  0,  0,  0,  0,  0,  0,  0,  0,  0,  0],
         [  0,  0,  0,  0,  0,  0,  0,  0,  0,  0,  0,  0,  0,  0,  0,  0,  0,  0,  0,  0,  0,  0,  0,  0,  0,  0,  0,  0,  0,  0,  0,  0,  0,  0,  0]],
    "layer1": 
        [[108,108,108,108,108,108,108,108,108,108,108,108,108,108,132, 72, 65, 66, 67, 62, 63, 64, 67, 58, 23, 45,  4, 16, 17, 16, 17, 16, 17, 16, 17],
         [108,108,108,108,108,108,108,108,101,108,108,101,108,108,132, 78, 77, 22, 77, 65, 66, 67, 51,135, 58,  1, 14, 19, 20, 19, 20, 19, 20, 19, 20],
         [108,108,108,108,108,108,108,108,108,108,108,108,108,101,132, 77, 77, 45, 22, 77, 50, 51, 51, 60, 80,  4, 17, 16, 17, 16, 17, 16, 17, 16, 17],
         [108,108,108,108,108,108,108,108,108,108,108,108,108,101,133, 72, 72, 24, 45, 24, 50, 51, 51, 51, 80,  7, 11, 19, 20, 19, 20, 19, 20, 19, 20],
         [108,108,108,108,108,108,108,108,108,108,108,108,101,134, 78, 78, 78, 77, 45, 24, 50, 51, 51, 51,135, 58,  4, 16, 17, 16, 17, 16, 17, 16, 17],
         [108,108,108,108, 25, 26, 26, 26, 26, 27, 25, 26, 27,132, 78, 72, 76, 76, 24, 45, 50, 51, 51, 51, 60, 61,  4, 19, 20, 19, 20, 19, 20, 19, 20],
         [108,108,108,108, 28, 29, 29, 29, 29, 30, 28, 29, 30,132, 78, 72, 77, 24, 44, 24, 50, 51, 51, 61, 63, 64,  4, 16, 17, 16, 17, 16, 17, 16, 17],
         [108,108,108,108, 31, 32, 32, 32, 32, 33, 31, 32, 33,133, 78, 78, 77, 24, 24, 24, 50, 51, 80, 64, 66, 67,  4, 19, 20, 19, 20, 19, 20, 19, 20],
         [108,108,108,117, 34,136,136, 35,136, 36, 34, 35, 36, 72, 72, 76, 76, 44, 24, 24, 50, 51, 80, 67,  1,  2, 14, 16, 17, 16, 17, 16, 17, 16, 17],
         [108,108,117,131, 37,137, 38,137,139, 39, 37, 38, 39, 77, 72, 72, 24, 24, 44, 22, 50, 51, 80,  1, 14, 19, 20, 19, 20, 19, 20, 19, 20, 19, 20],
         [113,108,123,125, 40,138, 41,138,140, 42, 40, 41, 42, 71, 72, 72, 76, 24, 24, 77, 50, 51, 80,  4, 16, 16, 17, 16, 17, 16, 17, 16, 17, 16, 17],
         [115,108,108,123,121,116,108,123,125, 68, 53, 54, 55, 23, 45, 23, 45, 68, 24, 24, 50, 51, 80,  4, 20, 19, 20, 19, 20, 19, 20, 19, 20, 19, 20],
         [108,108,108,108,108,108,108,108,123,121,121,121,125, 23, 68, 69, 77, 24, 24, 46, 50, 51,135, 58, 11, 19, 17, 16, 17, 16, 17, 16, 17, 16, 17],
         [108,108,106,104,104,107, 25, 26, 26, 26, 27,108,123,124, 72, 72, 72, 77, 44, 47, 50, 51, 51, 61,  7, 11, 17, 16, 17, 16, 17, 16, 17, 16, 17],
         [108,108,102, 82, 83,100, 28, 29, 29, 29, 30,111,111,132, 72, 72, 70, 77, 77, 50, 51, 80, 63, 64, 44,  4, 20, 19, 20, 19, 20, 19, 20, 19, 20],
         [119,111,114, 99, 82,110, 31, 32, 32, 32, 33,117,119,132, 78, 72, 73, 24, 47, 50, 51, 80, 66, 67, 23,  4, 17, 16, 17, 16, 17, 16, 17, 16, 17],
         [129,119,108,114,115,108, 34,136, 35,136, 36,131,122,101,132, 72, 24, 22, 50, 51, 51, 80, 55, 44, 23,  4, 20, 19, 20, 19, 20, 19, 20, 19, 20],
         [ 58,129,119,108,108,117, 37,139,137, 38, 39,127,116,108,120, 77, 24, 22, 50, 51, 60,135, 58, 44, 44,  7, 11, 16, 17, 16, 17, 16, 17, 16, 17],
         [ 61, 22,129,119,108,120, 40,140,138, 41, 42,122,101,117,131, 23, 22, 45, 50, 80, 59, 51, 61, 43, 44, 23,  4, 19, 20, 19, 20, 19, 20, 19, 20],
         [ 67, 57, 58,129,130,131,119,117,130,130,131,129,130,131, 22, 22, 24, 24, 50, 80, 62, 63, 64, 73, 44, 44,  4, 16, 17, 16, 17, 16, 17, 16, 17],
         [ 59, 60, 61, 56, 57, 58,129,131, 56, 57, 57, 58, 24, 22, 77, 47, 48, 49, 50, 80, 65, 66, 67, 73, 23,  1, 14, 19, 20, 19, 20, 19, 20, 19, 20],
         [ 62, 63, 64, 59, 60, 61, 57, 57,141, 58, 50, 80, 22, 22, 23, 50, 51, 52, 50,135, 58, 44, 44, 44, 44,  4, 17, 16, 17, 16, 17, 16, 17, 16, 17],
         [ 65, 66, 64, 62, 63, 64, 61, 63, 59, 61, 56,141, 57, 57, 57, 58, 54, 55, 50, 51,135, 58, 77, 44,  1, 14, 20, 19, 20, 19, 20, 19, 20, 19, 20],
         [ 61, 63, 65, 62, 66, 67, 62, 66, 66, 64, 59, 51, 60, 52, 56,141,141, 57, 57, 58, 60, 61, 44,  1, 14, 16, 17, 16, 17, 16, 17, 16, 17, 16, 17]],
    "layer4": 
        [[148,149,150,  0,  0,  0,148,149,150,  0,  0,142,143,  0,  0,  0,  0,  0,  0,  0,  0,  0,  0,  0,  0,  0,  0,  0,  0,  0,  0,  0,  0,  0,  0],
         [142,143,153,  0,  0,  0,  0,  0,153,  0,  0,  0,145,  0,  0,  0,  0,  0,  0,  0,  0,  0,  0,  0,  0,  0,  0,  0,  0,  0,  0,  0,  0,  0,  0],
         [144,145,  0,  0,  0,  0,  0,  0,142,149,150,  0,  0,  0,  0,  0,  0,  0,  0,  0,  0,  0,  0,  0,  0,  0,  0,  0,  0,  0,  0,  0,  0,  0,  0],
         [148,149,150,  0,  0,  0,  0,  0,  0,  0,153,  0,  0,  0,  0,  0,  0,  0,  0,  0,  0,  0,  0,  0,  0,  0,  0,  0,  0,  0,  0,  0,  0,  0,  0],
         [  0,  0,153,  0,  0,  0,  0,  0,  0,  0,  0,  0,  0,  0,  0,  0,  0,  0,  0,  0,  0,  0,  0,  0,  0,  0,  0,  0,  0,  0,  0,  0,  0,  0,  0],
         [142,143,  0,  0,  0,  0,  0,  0,  0,  0,  0,  0,  0,  0,  0,  0,  0,  0,  0,  0,  0,  0,  0,  0,  0,  0,  0,  0,  0,  0,  0,  0,  0,  0,  0],
         [143,145,  0,  0,  0,  0,  0,  0,  0,  0,  0,  0,  0,  0,  0,  0,  0,  0,  0,  0,  0,  0,  0,  0,  0,  0,  0,  0,  0,  0,  0,  0,  0,  0,  0],
         [142,143,  0,  0,  0,  0,  0,  0,  0,  0,  0,  0,  0,  0,  0,  0,  0,  0,  0,  0,  0,  0,  0,  0,  0,  0,  0,  0,  0,  0,  0,  0,  0,  0,  0],
         [144,145,  0,  0,  0,  0,  0,  0,  0,  0,  0,  0,  0,  0,  0,  0,  0,  0,  0,  0,  0,  0,  0,  0,  0,  0,  0,  0,  0,  0,  0,  0,  0,  0,  0],
         [  0,  0,  0,  0,  0,  0,  0,  0,  0,  0,  0,  0,  0,  0,  0,  0,  0,  0,  0,  0,  0,  0,  0,  0,  0,  0,  0,  0,  0,  0,  0,  0,  0,  0,  0],
         [  0,  0,  0,  0,  0,  0,  0,  0,  0,  0,  0,  0,  0,  0,  0,  0,  0,  0,  0,  0,  0,  0,  0,  0,  0,  0,  0,  0,  0,  0,  0,  0,  0,  0,  0],
         [143,  0,  0,  0,  0,  0,  0,  0,  0,  0,  0,  0,  0,  0,  0,  0,  0,  0,  0,  0,  0,  0,  0,  0,  0,  0,  0,  0,  0,  0,  0,  0,  0,  0,  0],
         [148,149,150,  0,  0,  0,  0,  0,  0,  0,  0,  0,  0,  0,  0,  0,  0,  0,  0,  0,  0,  0,  0,  0,  0,  0,  0,  0,  0,  0,  0,  0,  0,  0,  0],
         [151,152,153,  0,  0,  0,  0,  0,  0,  0,  0,  0,  0,  0,  0,  0,  0,  0,  0,  0,  0,  0,  0,  0,  0,  0,  0,  0,  0,  0,  0,  0,  0,  0,  0],
         [142,143,  0,  0,  0,  0,  0,  0,  0,  0,  0,  0,  0,  0,  0,  0,  0,  0,  0,  0,  0,  0,  0,  0,  0,  0,  0,  0,  0,  0,  0,  0,  0,  0,  0],
         [144,145,  0,  0,  0,  0,  0,  0,  0,  0,  0,  0,  0,  0,  0,  0,  0,  0,  0,  0,  0,  0,  0,  0,  0,  0,  0,  0,  0,  0,  0,  0,  0,  0,  0],
         [  0,  0,  0,  0,  0,  0,  0,  0,  0,  0,  0,  0,  0,  0,  0,  0,  0,  0,  0,  0,  0,  0,  0,  0,  0,  0,  0,  0,  0,  0,  0,  0,  0,  0,  0],
         [  0,  0,  0,  0,  0,  0,  0,  0,  0,  0,  0,  0,  0,  0,  0,  0,  0,  0,  0,  0,  0,  0,  0,  0,  0,  0,  0,  0,  0,  0,  0,  0,  0,  0,  0],
         [  0,  0,  0,  0,  0,  0,  0,  0,  0,  0,  0,  0,  0,  0,  0,  0,  0,  0,  0,  0,  0,  0,  0,  0,  0,  0,  0,  0,  0,  0,  0,  0,  0,  0,  0],
         [  0,  0,  0,  0,  0,  0,  0,  0,  0,  0,  0,  0,  0,  0,  0,  0,  0,  0,  0,  0,  0,  0,  0,  0,  0,  0,  0,  0,  0,  0,  0,  0,  0,  0,  0],
         [  0,  0,  0,  0,  0,  0,  0,  0,  0,  0,  0,  0,  0,  0,  0,  0,  0,  0,  0,  0,  0,  0,  0,  0,  0,  0,  0,  0,  0,  0,  0,  0,  0,  0,  0],
         [  0,  0,  0,  0,  0,  0,  0,  0,  0,  0,  0,  0,  0,  0,  0,  0,  0,  0,  0,  0,  0,  0,  0,  0,  0,  0,  0,  0,  0,  0,  0,  0,  0,  0,  0],
         [  0,  0,  0,  0,  0,  0,  0,  0,  0,  0,  0,  0,  0,  0,  0,  0,  0,  0,  0,  0,  0,  0,  0,  0,  0,  0,  0,  0,  0,  0,  0,  0,  0,  0,  0],
         [  0,  0,  0,  0,  0,  0,  0,  0,  0,  0,  0,  0,  0,  0,  0,  0,  0,  0,  0,  0,  0,  0,  0,  0,  0,  0,  0,  0,  0,  0,  0,  0,  0,  0,  0]],
    "eventsActions": 
        {
        "1": 
            [["fadeOut","blackFadeOut;keepEffect"],
             ["teleport","7;9;playerhouse"],
             ["fadeIn","blackFadeIn;doNotKeep"]],
        "3": 
            [["fadeOut","blackFadeOut;keepEffect"],
             ["teleport","5;9;housetopleft"],
             ["fadeIn","blackFadeIn;doNotKeep"]],
        "2": 
            [["fadeOut","blackFadeOut;keepEffect"],
             ["teleport","8;9;housemiddown"],
             ["fadeIn","blackFadeIn;doNotKeep"]],
        "5": 
            [["fadeOut","blackFadeOut;keepEffect"],
             ["teleport","18;9;smallforest"],
             ["fadeIn","blackFadeIn;doNotKeep"]],
        "4": 
            [["fadeOut","blackFadeOut;keepEffect"],
             ["teleport","18;8;smallforest"],
             ["fadeIn","blackFadeIn;doNotKeep"]]
        },
    "colision": 
        [[  1,  1,  1,  1,  1,  1,  1,  1,  1,  1,  1,  1,  1,  1,  1,  1,  1,  1,  1,  1,  1,  1,  1,  1,  0,  0,  0,  0,  0,  0,  0,  0,  0,  0,  0],
         [  1,  1,  0,  0,  0,  0,  1,  1,  0,  0,  0,  1,  1,  1,  1,  1,  0,  0,  0,  1,  1,  1,  0,  0,  1,  0,  0,  0,  0,  0,  0,  0,  0,  0,  0],
         [  1,  1,  1,  0,  0,  0,  0,  1,  1,  0,  0,  1,  1,  0,  0,  0,  0,  0,  0,  0,  0,  0,  0,  1,  0,  1,  0,  0,  0,  0,  0,  0,  0,  0,  0],
         [  1,  1,  0,  0,  0,  0,  0,  0,  1,  1,  0,  0,  0,  0,  0,  0,  0,  0,  0,  0,  0,  0,  0,  0,  0,  1,  0,  0,  0,  0,  0,  0,  0,  0,  0],
         [  1,  1,  0,  0,  0,  0,  0,  0,  0,  1,  1,  0,  0,  0,  0,  0,  0,  0,  0,  0,  0,  0,  0,  0,  0,  1,  0,  0,  0,  0,  0,  0,  0,  0,  0],
         [  1,  1,  1,  0,  1,  1,  1,  1,  1,  1,  1,  1,  1,  0,  0,  0,  0,  0,  0,  0,  0,  0,  0,  0,  1,  1,  0,  0,  0,  0,  0,  0,  0,  0,  0],
         [  1,  0,  0,  0,  1,  0,  0,  0,  0,  0,  0,  0,  1,  0,  0,  0,  0,  0,  0,  0,  0,  0,  0,  1,  0,  0,  0,  0,  0,  0,  0,  0,  0,  0,  0],
         [  1,  1,  0,  0,  1,  0,  0,  0,  0,  0,  0,  0,  1,  0,  0,  0,  0,  0,  0,  0,  0,  0,  0,  1,  0,  0,  0,  0,  0,  0,  0,  0,  0,  0,  0],
         [  1,  0,  0,  0,  1,  0,  0,  0,  0,  0,  0,  0,  1,  0,  0,  0,  0,  0,  0,  0,  0,  0,  0,  1,  0,  0,  0,  0,  0,  0,  0,  0,  0,  0,  0],
         [  1,  1,  0,  0,  1,  1,  1,  1,  0,  0,  1,  1,  1,  0,  0,  0,  0,  0,  0,  0,  0,  0,  0,  1,  0,  0,  0,  0,  0,  0,  0,  0,  0,  0,  0],
         [  0,  0,  0,  0,  1,  1,  0,  1,  1,  1,  1,  0,  1,  0,  0,  0,  0,  0,  0,  0,  0,  0,  0,  1,  0,  0,  0,  0,  0,  0,  0,  0,  0,  0,  0],
         [  0,  0,  0,  0,  0,  0,  0,  0,  0,  0,  0,  0,  0,  0,  0,  0,  0,  0,  0,  0,  0,  0,  0,  1,  0,  0,  0,  0,  0,  0,  0,  0,  0,  0,  0],
         [  1,  0,  0,  0,  0,  0,  0,  0,  0,  0,  0,  0,  0,  0,  0,  0,  0,  0,  0,  0,  0,  0,  0,  1,  0,  0,  0,  0,  0,  0,  0,  0,  0,  0,  0],
         [  1,  1,  0,  0,  0,  0,  1,  1,  1,  1,  1,  0,  0,  0,  0,  0,  0,  0,  0,  0,  0,  0,  0,  1,  0,  0,  0,  0,  0,  0,  0,  0,  0,  0,  0],
         [  1,  1,  1,  0,  0,  0,  1,  0,  0,  0,  1,  0,  0,  0,  0,  0,  0,  0,  0,  0,  0,  0,  1,  0,  0,  0,  0,  0,  0,  0,  0,  0,  0,  0,  0],
         [  1,  0,  0,  0,  0,  0,  1,  0,  0,  0,  1,  0,  0,  0,  0,  0,  0,  0,  0,  0,  0,  0,  1,  0,  0,  0,  0,  0,  0,  0,  0,  0,  0,  0,  0],
         [  1,  1,  0,  0,  0,  0,  1,  0,  0,  0,  1,  0,  0,  0,  0,  0,  0,  0,  0,  0,  0,  0,  1,  0,  0,  0,  0,  0,  0,  0,  0,  0,  0,  0,  0],
         [  1,  0,  0,  0,  0,  0,  1,  0,  0,  1,  1,  0,  0,  0,  0,  0,  0,  0,  0,  0,  1,  0,  1,  0,  0,  0,  0,  0,  0,  0,  0,  0,  0,  0,  0],
         [  1,  0,  0,  0,  0,  0,  1,  1,  1,  0,  1,  0,  0,  0,  0,  0,  0,  0,  0,  0,  1,  0,  1,  1,  0,  0,  0,  0,  0,  0,  0,  0,  0,  0,  0],
         [  1,  1,  1,  0,  0,  0,  0,  0,  0,  0,  0,  0,  0,  0,  0,  0,  0,  0,  0,  0,  1,  1,  0,  0,  0,  0,  0,  0,  0,  0,  0,  0,  0,  0,  0],
         [  1,  0,  1,  1,  1,  1,  0,  0,  1,  1,  1,  1,  0,  0,  0,  0,  0,  0,  0,  0,  1,  0,  0,  0,  0,  0,  0,  0,  0,  0,  0,  0,  0,  0,  0],
         [  1,  0,  0,  0,  0,  1,  1,  1,  1,  0,  0,  1,  0,  0,  0,  0,  0,  0,  0,  0,  1,  0,  0,  0,  0,  0,  0,  0,  0,  0,  0,  0,  0,  0,  0],
         [  1,  0,  0,  0,  0,  0,  0,  0,  0,  0,  0,  1,  1,  1,  1,  1,  0,  0,  0,  0,  0,  1,  0,  0,  0,  0,  0,  0,  0,  0,  0,  0,  0,  0,  0],
         [  1,  0,  0,  0,  0,  0,  0,  0,  0,  0,  0,  0,  0,  0,  0,  1,  1,  1,  1,  1,  1,  1,  1,  0,  0,  0,  0,  0,  0,  0,  0,  0,  0,  0,  0]],
    "eventsType": 
        {
        "1":  [  0,  1],
        "3":  [  0,  1],
        "2":  [  0,  1],
        "5":  [  0,  1],
        "4":  [  0,  1]
        },
    "events": 
        [[  0,  0,  0,  0,  0,  0,  0,  0,  0,  0,  0,  0,  0,  0,  0,  0,  0,  0,  0,  0,  0,  0,  0,  0,  0,  0,  0,  0,  0,  0,  0,  0,  0,  0,  0],
         [  0,  0,  0,  0,  0,  0,  0,  0,  0,  0,  0,  0,  0,  0,  0,  0,  0,  0,  0,  0,  0,  0,  0,  0,  0,  0,  0,  0,  0,  0,  0,  0,  0,  0,  0],
         [  0,  0,  0,  0,  0,  0,  0,  0,  0,  0,  0,  0,  0,  0,  0,  0,  0,  0,  0,  0,  0,  0,  0,  0,  0,  0,  0,  0,  0,  0,  0,  0,  0,  0,  0],
         [  0,  0,  0,  0,  0,  0,  0,  0,  0,  0,  0,  0,  0,  0,  0,  0,  0,  0,  0,  0,  0,  0,  0,  0,  0,  0,  0,  0,  0,  0,  0,  0,  0,  0,  0],
         [  0,  0,  0,  0,  0,  0,  0,  0,  0,  0,  0,  0,  0,  0,  0,  0,  0,  0,  0,  0,  0,  0,  0,  0,  0,  0,  0,  0,  0,  0,  0,  0,  0,  0,  0],
         [  0,  0,  0,  0,  0,  0,  0,  0,  0,  0,  0,  0,  0,  0,  0,  0,  0,  0,  0,  0,  0,  0,  0,  0,  0,  0,  0,  0,  0,  0,  0,  0,  0,  0,  0],
         [  0,  0,  0,  0,  0,  0,  0,  0,  0,  0,  0,  0,  0,  0,  0,  0,  0,  0,  0,  0,  0,  0,  0,  0,  0,  0,  0,  0,  0,  0,  0,  0,  0,  0,  0],
         [  0,  0,  0,  0,  0,  0,  0,  0,  0,  0,  0,  0,  0,  0,  0,  0,  0,  0,  0,  0,  0,  0,  0,  0,  0,  0,  0,  0,  0,  0,  0,  0,  0,  0,  0],
         [  0,  0,  0,  0,  0,  0,  0,  0,  0,  0,  0,  0,  0,  0,  0,  0,  0,  0,  0,  0,  0,  0,  0,  0,  0,  0,  0,  0,  0,  0,  0,  0,  0,  0,  0],
         [  0,  0,  0,  0,  0,  0,  0,  0,  0,  0,  0,  0,  0,  0,  0,  0,  0,  0,  0,  0,  0,  0,  0,  0,  0,  0,  0,  0,  0,  0,  0,  0,  0,  0,  0],
         [  4,  0,  0,  0,  0,  0,  3,  0,  0,  0,  0,  1,  0,  0,  0,  0,  0,  0,  0,  0,  0,  0,  0,  0,  0,  0,  0,  0,  0,  0,  0,  0,  0,  0,  0],
         [  5,  0,  0,  0,  0,  0,  0,  0,  0,  0,  0,  0,  0,  0,  0,  0,  0,  0,  0,  0,  0,  0,  0,  0,  0,  0,  0,  0,  0,  0,  0,  0,  0,  0,  0],
         [  0,  0,  0,  0,  0,  0,  0,  0,  0,  0,  0,  0,  0,  0,  0,  0,  0,  0,  0,  0,  0,  0,  0,  0,  0,  0,  0,  0,  0,  0,  0,  0,  0,  0,  0],
         [  0,  0,  0,  0,  0,  0,  0,  0,  0,  0,  0,  0,  0,  0,  0,  0,  0,  0,  0,  0,  0,  0,  0,  0,  0,  0,  0,  0,  0,  0,  0,  0,  0,  0,  0],
         [  0,  0,  0,  0,  0,  0,  0,  0,  0,  0,  0,  0,  0,  0,  0,  0,  0,  0,  0,  0,  0,  0,  0,  0,  0,  0,  0,  0,  0,  0,  0,  0,  0,  0,  0],
         [  0,  0,  0,  0,  0,  0,  0,  0,  0,  0,  0,  0,  0,  0,  0,  0,  0,  0,  0,  0,  0,  0,  0,  0,  0,  0,  0,  0,  0,  0,  0,  0,  0,  0,  0],
         [  0,  0,  0,  0,  0,  0,  0,  0,  0,  0,  0,  0,  0,  0,  0,  0,  0,  0,  0,  0,  0,  0,  0,  0,  0,  0,  0,  0,  0,  0,  0,  0,  0,  0,  0],
         [  0,  0,  0,  0,  0,  0,  0,  0,  0,  0,  0,  0,  0,  0,  0,  0,  0,  0,  0,  0,  0,  0,  0,  0,  0,  0,  0,  0,  0,  0,  0,  0,  0,  0,  0],
         [  0,  0,  0,  0,  0,  0,  0,  0,  0,  2,  0,  0,  0,  0,  0,  0,  0,  0,  0,  0,  0,  0,  0,  0,  0,  0,  0,  0,  0,  0,  0,  0,  0,  0,  0],
         [  0,  0,  0,  0,  0,  0,  0,  0,  0,  0,  0,  0,  0,  0,  0,  0,  0,  0,  0,  0,  0,  0,  0,  0,  0,  0,  0,  0,  0,  0,  0,  0,  0,  0,  0],
         [  0,  0,  0,  0,  0,  0,  0,  0,  0,  0,  0,  0,  0,  0,  0,  0,  0,  0,  0,  0,  0,  0,  0,  0,  0,  0,  0,  0,  0,  0,  0,  0,  0,  0,  0],
         [  0,  0,  0,  0,  0,  0,  0,  0,  0,  0,  0,  0,  0,  0,  0,  0,  0,  0,  0,  0,  0,  0,  0,  0,  0,  0,  0,  0,  0,  0,  0,  0,  0,  0,  0],
         [  0,  0,  0,  0,  0,  0,  0,  0,  0,  0,  0,  0,  0,  0,  0,  0,  0,  0,  0,  0,  0,  0,  0,  0,  0,  0,  0,  0,  0,  0,  0,  0,  0,  0,  0],
         [  0,  0,  0,  0,  0,  0,  0,  0,  0,  0,  0,  0,  0,  0,  0,  0,  0,  0,  0,  0,  0,  0,  0,  0,  0,  0,  0,  0,  0,  0,  0,  0,  0,  0,  0]]
    }
}